
[
	{
	    "model": "socio.historialtiposociopreciocuota",
	    "pk": 9,
	    "fields": {
	      "tipo_socio": "1",
	      "fecha": "2003-01-01 00:00:00.000000+00:00",
		  "precio": 0.0
	    }
	},
	{
	    "model": "socio.historialtiposociopreciocuota",
	    "pk": 10,
	    "fields": {
	      "tipo_socio": "2",
	      "fecha": "2003-01-01 00:00:00.000000+00:00",
		  "precio": 50000.0
	    }
	},
	{
	    "model": "socio.historialtiposociopreciocuota",
	    "pk": 11,
	    "fields": {
	      "tipo_socio": "3",
	      "fecha": "2003-01-01 00:00:00.000000+00:00",
		  "precio": 0.0
	    }
	},
	{
	    "model": "socio.historialtiposociopreciocuota",
	    "pk": 12,
	    "fields": {
	      "tipo_socio": "4",
	      "fecha": "2003-01-01 00:00:00.000000+00:00",
		  "precio": 0.0
	    }
	},
	{
	    "model": "socio.historialtiposociopreciocuota",
	    "pk": 13,
	    "fields": {
	      "tipo_socio": "5",
	      "fecha": "2003-01-01 00:00:00.000000+00:00",
		  "precio": 0.0
	    }
	},
	{
	    "model": "socio.historialtiposociopreciocuota",
	    "pk": 14,
	    "fields": {
	      "tipo_socio": "6",
	      "fecha": "2003-01-01 00:00:00.000000+00:00",
		  "precio": 0.0
	    }
	},
	{
	    "model": "socio.historialtiposociopreciocuota",
	    "pk": 15,
	    "fields": {
	      "tipo_socio": "7",
	      "fecha": "2003-01-01 00:00:00.000000+00:00",
		  "precio": 0.0
	    }
	},
	{
	    "model": "socio.historialtiposociopreciocuota",
	    "pk": 16,
	    "fields": {
	      "tipo_socio": "8",
	      "fecha": "2003-01-01 00:00:00.000000+00:00",
		  "precio": 50000.0
	    }
	},
	{
	    "model": "socio.historialtiposociopreciocuota",
	    "pk": 17,
	    "fields": {
	      "tipo_socio": "9",
	      "fecha": "2003-01-01 00:00:00.000000+00:00",
		  "precio": 50000.0
	    }
	},
    {
	    "model": "socio.historialtiposociopreciocuota",
	    "pk": 18,
	    "fields": {
	      "tipo_socio": "1",
	      "fecha": "2009-01-01 00:00:00.000000+00:00",
		  "precio": 0.0
	    }
	},
	{
	    "model": "socio.historialtiposociopreciocuota",
	    "pk": 19,
	    "fields": {
	      "tipo_socio": "2",
	      "fecha": "2009-01-01 00:00:00.000000+00:00",
		  "precio": 125000.0
	    }
	},
	{
	    "model": "socio.historialtiposociopreciocuota",
	    "pk": 20,
	    "fields": {
	      "tipo_socio": "3",
	      "fecha": "2009-01-01 00:00:00.000000+00:00",
		  "precio": 0.0
	    }
	},
	{
	    "model": "socio.historialtiposociopreciocuota",
	    "pk": 21,
	    "fields": {
	      "tipo_socio": "4",
	      "fecha": "2009-01-01 00:00:00.000000+00:00",
		  "precio": 0.0
	    }
	},
	{
	    "model": "socio.historialtiposociopreciocuota",
	    "pk": 22,
	    "fields": {
	      "tipo_socio": "5",
	      "fecha": "2009-01-01 00:00:00.000000+00:00",
		  "precio": 0.0
	    }
	},
	{
	    "model": "socio.historialtiposociopreciocuota",
	    "pk": 23,
	    "fields": {
	      "tipo_socio": "6",
	      "fecha": "2009-01-01 00:00:00.000000+00:00",
		  "precio": 0.0
	    }
	},
	{
	    "model": "socio.historialtiposociopreciocuota",
	    "pk": 24,
	    "fields": {
	      "tipo_socio": "7",
	      "fecha": "2009-01-01 00:00:00.000000+00:00",
		  "precio": 0.0
	    }
	},
	{
	    "model": "socio.historialtiposociopreciocuota",
	    "pk": 25,
	    "fields": {
	      "tipo_socio": "8",
	      "fecha": "2009-01-01 00:00:00.000000+00:00",
		  "precio": 125000.0
	    }
	},
	{
	    "model": "socio.historialtiposociopreciocuota",
	    "pk": 26,
	    "fields": {
	      "tipo_socio": "9",
	      "fecha": "2009-01-01 00:00:00.000000+00:00",
		  "precio": 125000.0
	    }
	},
    {
	    "model": "socio.historialtiposociopreciocuota",
	    "pk": 27,
	    "fields": {
	      "tipo_socio": "1",
	      "fecha": "2018-01-01 00:00:00.000000+00:00",
		  "precio": 0.0
	    }
	},
	{
	    "model": "socio.historialtiposociopreciocuota",
	    "pk": 28,
	    "fields": {
	      "tipo_socio": "2",
	      "fecha": "2018-01-01 00:00:00.000000+00:00",
		  "precio": 200000.0
	    }
	},
	{
	    "model": "socio.historialtiposociopreciocuota",
	    "pk": 29,
	    "fields": {
	      "tipo_socio": "3",
	      "fecha": "2018-01-01 00:00:00.000000+00:00",
		  "precio": 0.0
	    }
	},
	{
	    "model": "socio.historialtiposociopreciocuota",
	    "pk": 30,
	    "fields": {
	      "tipo_socio": "4",
	      "fecha": "2018-01-01 00:00:00.000000+00:00",
		  "precio": 0.0
	    }
	},
	{
	    "model": "socio.historialtiposociopreciocuota",
	    "pk": 31,
	    "fields": {
	      "tipo_socio": "5",
	      "fecha": "2018-01-01 00:00:00.000000+00:00",
		  "precio": 0.0
	    }
	},
	{
	    "model": "socio.historialtiposociopreciocuota",
	    "pk": 32,
	    "fields": {
	      "tipo_socio": "6",
	      "fecha": "2018-01-01 00:00:00.000000+00:00",
		  "precio": 0.0
	    }
	},
	{
	    "model": "socio.historialtiposociopreciocuota",
	    "pk": 33,
	    "fields": {
	      "tipo_socio": "7",
	      "fecha": "2018-01-01 00:00:00.000000+00:00",
		  "precio": 0.0
	    }
	},
	{
	    "model": "socio.historialtiposociopreciocuota",
	    "pk": 34,
	    "fields": {
	      "tipo_socio": "8",
	      "fecha": "2018-01-01 00:00:00.000000+00:00",
		  "precio": 200000.0
	    }
	},
	{
	    "model": "socio.historialtiposociopreciocuota",
	    "pk": 35,
	    "fields": {
	      "tipo_socio": "9",
	      "fecha": "2018-01-01 00:00:00.000000+00:00",
		  "precio": 200000.0
	    }
	}
]
